[
	{
		"title"		: "APP_PAGE_BLOG_SETTINGS_DEFAULT",
		"desc"		: "APP_PAGE_BLOG_SETTINGS_DEFAULT_DESC",
		"fields"	:
		[
			{
				"label"		: "APP_PAGE_BLOG_SETTINGS_DEFAULT_TOTAL",
				"tooltip"	: "APP_PAGE_BLOG_SETTINGS_DEFAULT_TOTAL_DESC",
				"name"		: "total",
				"class"		: "input-mini center",
				"type"		: "text",
				"default"	: 5
			},
			{
				"label"		: "APP_PAGE_BLOG_SETTINGS_DEFAULT_CONTENT_LENGTH",
				"tooltip"	: "APP_PAGE_BLOG_SETTINGS_DEFAULT_CONTENT_LENGTH_DESC",
				"name"		: "maxlength",
				"class"		: "input-mini center",
				"type"		: "text",
				"default"	: 250
			},
			{
				"label"		: "APP_PAGE_BLOG_SETTINGS_DEFAULT_TRUNCATION",
				"tooltip"	: "APP_PAGE_BLOG_SETTINGS_DEFAULT_TRUNCATION_DESC",
				"name"		: "truncation",
				"type"		: "select",
				"default"	: "chars",
				"options"	:
				[
					{
						"title"	: "APP_PAGE_BLOG_SETTINGS_DEFAULT_TRUNCATION_CHARACTERS",
						"value"	: "chars"
					},
					{
						"title"	: "APP_PAGE_BLOG_SETTINGS_DEFAULT_TRUNCATION_WORDS",
						"value"	: "words"
					}
				]
			},
			{
				"label"		: "APP_PAGE_BLOG_SETTINGS_DEFAULT_IMAGE_ALIGNMENT",
				"tooltip"	: "APP_PAGE_BLOG_SETTINGS_DEFAULT_IMAGE_ALIGNMENT_DESC",
				"name"		: "imagealignment",
				"type"		: "select",
				"default"	: "right",
				"options"	:
				[
					{
						"title"	: "APP_PAGE_BLOG_SETTINGS_DEFAULT_IMAGE_ALIGN_LEFT",
						"value"	: "left"
					},
					{
						"title"	: "APP_PAGE_BLOG_SETTINGS_DEFAULT_IMAGE_ALIGN_RIGHT",
						"value"	: "right"
					}
				]
			}
		]
	},
    {
        "title": "APP_PAGE_BLOG_SETTINGS_WIDGETS_PAGE",
        "desc": "APP_PAGE_BLOG_SETTINGS_WIDGETS_PAGE_DESC",
        "fields":
        [
            {
                "label": "APP_PAGE_BLOG_SETTINGS_WIDGETS_PAGE",
                "tooltip": "APP_PAGE_BLOG_SETTINGS_WIDGETS_PAGE_DESC",
                "name": "widget",
                "type": "boolean",
                "default": true
            },
            {
                "label": "APP_PAGE_BLOG_SETTINGS_WIDGETS_PAGE_TOTAL",
                "tooltip": "APP_PAGE_BLOG_SETTINGS_WIDGETS_PAGE_TOTAL_DESC",
                "name": "widget_total",
                "type": "text",
                "default": 5,
                "class": "input-mini text-center"
            }
        ]
    },
    {
        "title"     : "APP_PAGE_BLOG_SETTINGS_LISTING",
        "desc"      : "APP_PAGE_BLOG_SETTINGS_LISTING_DESC",
        "fields"    :
        [
            {
                "label"     : "APP_PAGE_BLOG_LISTING_TOTAL_BLOGS_DISPLAY",
                "tooltip"   : "APP_PAGE_BLOG_LISTING_TOTAL_BLOGS_DISPLAY_DESC",
                "name"      : "listing_total",
                "class"     : "input-mini center",
                "type"      : "text",
                "default"   : 5
            },
            {
                "label"     : "APP_PAGE_BLOG_LISTING_CONTENT_LENGTH_DISPLAY",
                "tooltip"   : "APP_PAGE_BLOG_LISTING_CONTENT_LENGTH_DISPLAY_DESC",
                "name"      : "listing_maxlength",
                "class"     : "input-mini center",
                "type"      : "text",
                "default"   : 250
            }
        ]
    }
]
